{
    "50": {
        "avg": [
            [
                0.4399268329143524
            ],
            [
                0.23876935243606567
            ]
        ],
        "min": [
            [
                0.44225573539733887
            ],
            [
                0.23400935530662537
            ]
        ],
        "max": [
            [
                0.4418884515762329
            ],
            [
                0.2268727421760559
            ]
        ]
    }
}