{
    "96000": {
        "Average img size": [
            222,
            192
        ],
        "Min image": [
            35,
            30
        ],
        "Max image": [
            1710,
            2665
        ]
    },
    "60000": {
        "Average img size": [
            222,
            191
        ],
        "Min image": [
            35,
            30
        ],
        "Max image": [
            993,
            775
        ]
    },
    "36000": {
        "Average img size": [
            222,
            191
        ],
        "Min image": [
            42,
            37
        ],
        "Max image": [
            993,
            775
        ]
    },
    "12000": {
        "Average img size": [
            224,
            196
        ],
        "Min image": [
            35,
            30
        ],
        "Max image": [
            1000,
            667
        ]
    }
}